using grid 12 = 960px

1 grid = 60px
1 gutter = 20px ( 2 * 10px)


fonts : 
=======================================================
google : 
-------------------------------------------------
- pacifico, cursive
- lato
- eb garamond, serif
